<?xml version="1.0" encoding="iso-8859-1"?>
<!-- Generator: Adobe Illustrator 19.0.0, SVG Export Plug-In . SVG Version: 6.00 Build 0)  -->
<svg xmlns="http://www.w3.org/2000/svg" xmlns:xlink="http://www.w3.org/1999/xlink" version="1.1" id="Capa_1" x="0px" y="0px" viewBox="0 0 386.1 386.1" style="enable-background:new 0 0 386.1 386.1;" xml:space="preserve" width="512px" height="512px">
<g>
	<g>
		<path d="M375.6,32.999H10.4c-5.5,0-10.4,4.2-10.4,9.7v122.4c1,35.3,10.7,69.7,30.1,99.6c18.9,28.9,45.1,52.3,76,67.7    c1.2,0.7,2.4,1.2,3.4,1.7c26,12.6,54.6,19.1,83.5,19c29.6,0,58.8-6.9,85.4-20c0.5-0.3,1-0.5,1.5-0.8c0.4-0.2,0.8-0.4,1.4-0.7    c30.7-15.6,56.7-39.1,75.4-68.1c19.1-29.6,29.3-64.1,29.4-99.3v-121.7C386,37.2,381.2,32.999,375.6,32.999z M109.6,311.799    c-25.3-13.8-46.8-33.7-62.6-57.9c-16.1-24.7-25.3-53.3-26.6-82.8c10.7-5.7,19.5-8.6,32.6-8.6c47.1,0.1,85.3,38.3,85.4,85.4    C138.5,272.299,128,295.599,109.6,311.799z M193,333.299c-21.9,0-43.7-4.2-64-12.3c19-19.6,29.6-45.8,29.4-73.1    c0-58.2-47.4-105.5-105.5-105.5c-11.3-0.2-22.5,2.1-32.9,6.5v-95.9h249v110.5c-46.5,33.8-56.8,99-23,145.5    c3.1,4.3,6.6,8.4,10.4,12.2C236.2,329.099,214.7,333.199,193,333.299z M339.6,252.999c-15.9,24.8-37.9,45.1-63.8,59.2    c-19-16.5-29.8-39.7-29.8-64.2c0-28.7,14.6-55.3,39.1-71.3c14.1-9.2,30.5-14.1,47.3-14.1c11.5,0,20.7,2.2,33.2,6.6    C364.7,198.799,355.7,227.9,339.6,252.999z M366,147.999c-12-3.5-21.5-5.5-33.3-5.5c-15.2,0-30.7,3.2-43.7,9.4v-98.9h77V147.999z" fill="#16a5f7"/>
	</g>
</g>
<g>
</g>
<g>
</g>
<g>
</g>
<g>
</g>
<g>
</g>
<g>
</g>
<g>
</g>
<g>
</g>
<g>
</g>
<g>
</g>
<g>
</g>
<g>
</g>
<g>
</g>
<g>
</g>
<g>
</g>
</svg>
