<?xml version="1.0" encoding="utf-8"?>
<!-- Generator: Adobe Illustrator 21.1.0, SVG Export Plug-In . SVG Version: 6.00 Build 0)  -->
<svg version="1.1" id="Capa_1" xmlns="http://www.w3.org/2000/svg" xmlns:xlink="http://www.w3.org/1999/xlink" x="0px" y="0px"
	 viewBox="0 0 67.9 67.9" style="enable-background:new 0 0 67.9 67.9;" xml:space="preserve">
<style type="text/css">
	.st0{fill:#9C9C9C;}
</style>
<g>
	<path class="st0" d="M62.5,11.2c-7.4-7.4-19.4-7.4-26.8,0L34,13l-1.7-1.7c-7.4-7.4-19.4-7.4-26.8,0C-1.8,18.5-1.8,30,5.4,37.9
		c6.5,7.3,25.8,23,26.7,23.7c0.6,0.5,1.2,0.7,1.9,0.7c0,0,0,0,0.1,0c0.7,0,1.4-0.2,2-0.7c0.8-0.7,20.1-16.4,26.7-23.7
		C69.8,30,69.7,18.5,62.5,11.2z M58.1,33.9C53,39.6,39,51.3,34,55.4c-5-4.1-19.1-15.8-24.2-21.5c-5-5.6-5.1-13.5-0.1-18.4
		c2.5-2.5,5.8-3.8,9.2-3.8s6.6,1.3,9.2,3.8l3.8,3.8c0.4,0.4,1,0.7,1.6,0.8c1,0.2,2-0.1,2.8-0.8l3.8-3.8c5.1-5,13.3-5,18.3,0
		C63.2,20.4,63.1,28.4,58.1,33.9z"/>
</g>
</svg>
