<?xml version="1.0" encoding="utf-8"?>
<!-- Generator: Adobe Illustrator 21.1.0, SVG Export Plug-In . SVG Version: 6.00 Build 0)  -->
<svg version="1.1" id="Layer_1" xmlns="http://www.w3.org/2000/svg" xmlns:xlink="http://www.w3.org/1999/xlink" x="0px" y="0px"
	 viewBox="0 0 512 512" style="enable-background:new 0 0 512 512;" xml:space="preserve">
<style type="text/css">
	.st0{fill:#9C9C9C;}
</style>
<path id="XMLID_226_" class="st0" d="M361.9,242L187.3,9.3C179.6-1,165-3.1,154.8,4.7c-10.3,7.7-12.4,22.3-4.7,32.6L314.2,256
	L150.1,474.8c-7.7,10.3-5.6,24.9,4.7,32.6c4.2,3.1,9.1,4.7,13.9,4.7c7.1,0,14.1-3.2,18.6-9.3L361.9,270
	C368.1,261.7,368.1,250.3,361.9,242z"/>
</svg>
