<?xml version="1.0" encoding="utf-8"?>
<!-- Generator: Adobe Illustrator 21.1.0, SVG Export Plug-In . SVG Version: 6.00 Build 0)  -->
<svg version="1.1" id="Capa_1" xmlns="http://www.w3.org/2000/svg" xmlns:xlink="http://www.w3.org/1999/xlink" x="0px" y="0px"
	 viewBox="0 0 492.7 492.7" style="enable-background:new 0 0 492.7 492.7;" xml:space="preserve">
<style type="text/css">
	.st0{fill:#8B7BE2;}
</style>
<g>
	<g id="Icons_18_">
		<path class="st0" d="M492.7,166C492.7,92.5,433.1,33,359.7,33c-48,0-89.9,25.5-113.3,63.6C222.9,58.4,181,33,133,33
			C59.6,33,0,92.5,0,166c0,40,17.7,75.8,45.7,100.2l188.5,188.6c3.2,3.2,7.6,5,12.1,5s8.9-1.8,12.1-5L447,266.2
			C475,241.8,492.7,206,492.7,166z"/>
	</g>
</g>
</svg>
