<?xml version="1.0" encoding="utf-8"?>
<!-- Generator: Adobe Illustrator 21.1.0, SVG Export Plug-In . SVG Version: 6.00 Build 0)  -->
<svg version="1.1" id="Слой_1" xmlns="http://www.w3.org/2000/svg" xmlns:xlink="http://www.w3.org/1999/xlink" x="0px" y="0px"
	 viewBox="0 0 976.2 642" style="enable-background:new 0 0 976.2 642;" xml:space="preserve">
<style type="text/css">
	.st0{fill:#25A1E8;}
</style>
<g>
	<g>
		<g>
			<g>
				<path class="st0" d="M456.4,71.5c-30.3,0-60.6,0-90.9,0c-48.1,0-96.2,0-144.2,0c-11,0-22.1,0-33.1,0c-15.7,0-30.7,13.8-30,30
					c0.7,16.3,13.2,30,30,30c30.3,0,60.6,0,90.9,0c48.1,0,96.2,0,144.2,0c11,0,22.1,0,33.1,0c15.7,0,30.7-13.8,30-30
					C485.7,85.3,473.3,71.5,456.4,71.5L456.4,71.5z"/>
			</g>
		</g>
		<g>
			<g>
				<path class="st0" d="M787.8,71.5c-30,0-60,0-90,0c-47.8,0-95.6,0-143.5,0c-11,0-22,0-33,0c-15.7,0-30.7,13.8-30,30
					c0.7,16.3,13.2,30,30,30c30,0,60,0,90,0c47.8,0,95.6,0,143.5,0c11,0,22,0,33,0c15.7,0,30.7-13.8,30-30S804.6,71.5,787.8,71.5
					L787.8,71.5z"/>
			</g>
		</g>
	</g>
	<g>
		<g>
			<g>
				<path class="st0" d="M357,460.6c-2.4,10.8-5.7,21.4-10,31.6c1-2.4,2-4.8,3-7.2c-4.5,10.7-10,20.9-16.4,30.5
					c-1.6,2.4-3.3,4.8-5.1,7.2c-1.3,1.8-4.8,5.7,1.4-1.8c-0.9,1-1.7,2.1-2.5,3.2c-3.7,4.5-7.6,8.9-11.8,13c-4,4-8.1,7.8-12.4,11.4
					c-1.2,1-2.4,2-3.7,3c-3.9,3.1,6.1-4.5,1.8-1.4c-2.2,1.6-4.4,3.2-6.6,4.7c-9.8,6.6-20.2,12.3-31,16.9c2.4-1,4.8-2,7.2-3
					c-15,6.3-30.7,10.6-46.8,12.8c2.7-0.4,5.3-0.7,8-1.1c-16.2,2.1-32.5,2.1-48.6,0c2.7,0.4,5.3,0.7,8,1.1
					c-16.1-2.2-31.8-6.5-46.8-12.8c2.4,1,4.8,2,7.2,3c-10.6-4.6-20.8-10.1-30.4-16.5c-2.4-1.6-4.8-3.4-7.2-5.1
					c-4.4-3.2,6,4.8,1.8,1.4c-1-0.9-2.1-1.7-3.1-2.6c-4.5-3.7-8.8-7.7-13-11.8c-4-4-7.8-8.2-11.3-12.5c-0.9-1.1-2.4-2.4-3-3.7
					c1,1.3,2,2.6,3,3.9c-0.5-0.7-1.1-1.4-1.6-2.2c-1.6-2.2-3.2-4.4-4.7-6.6c-6.6-9.8-12.2-20.2-16.8-31.1c1,2.4,2,4.8,3,7.2
					c-4.3-10.2-7.6-20.8-10-31.6c-9.6,12.7-19.3,25.3-28.9,38c11.8,0,23.6,0,35.5,0c28.4,0,56.8,0,85.1,0c34.2,0,68.3,0,102.5,0
					c29.7,0,59.4,0,89.1,0c14.4,0,28.9,0.3,43.4,0c0.2,0,0.4,0,0.6,0c15.7,0,30.7-13.8,30-30c-0.7-16.3-13.2-30-30-30
					c-11.8,0-23.6,0-35.5,0c-28.4,0-56.8,0-85.1,0c-34.2,0-68.3,0-102.5,0c-29.7,0-59.4,0-89.1,0c-14.4,0-28.9-0.3-43.4,0
					c-0.2,0-0.4,0-0.6,0c-20.3,0-33.1,19.1-28.9,38c16.3,73.4,72.7,133.4,144.1,156c73.1,23.2,155.3,2.8,210.3-50.1
					c29.5-28.4,50.8-66,59.6-105.9c3.4-15.3-4.6-33.2-21-36.9C378.7,436.2,360.6,444.2,357,460.6z"/>
			</g>
		</g>
		<g>
			<g>
				<path class="st0" d="M917.3,460.6c-2.4,10.8-5.7,21.4-10,31.6c1-2.4,2-4.8,3-7.2c-4.5,10.7-10,20.9-16.4,30.5
					c-1.6,2.4-3.3,4.8-5.1,7.2c-1.3,1.8-4.8,5.7,1.4-1.8c-0.9,1-1.7,2.1-2.5,3.2c-3.7,4.5-7.6,8.9-11.8,13c-4,4-8.1,7.8-12.4,11.4
					c-1.2,1-2.4,2-3.7,3c-3.9,3.1,6.1-4.5,1.8-1.4c-2.2,1.6-4.4,3.2-6.6,4.7c-9.8,6.6-20.2,12.3-31,16.9c2.4-1,4.8-2,7.2-3
					c-15,6.3-30.7,10.6-46.8,12.8c2.7-0.4,5.3-0.7,8-1.1c-16.2,2.1-32.5,2.1-48.6,0c2.7,0.4,5.3,0.7,8,1.1
					c-16.1-2.2-31.8-6.5-46.8-12.8c2.4,1,4.8,2,7.2,3c-10.6-4.6-20.8-10.1-30.4-16.5c-2.4-1.6-4.8-3.4-7.2-5.1
					c-4.4-3.2,6,4.8,1.8,1.4c-1-0.9-2.1-1.7-3.1-2.6c-4.5-3.7-8.8-7.7-13-11.8c-4-4-7.8-8.2-11.3-12.5c-0.9-1.1-2.4-2.4-3-3.7
					c1,1.3,2,2.6,3,3.9c-0.5-0.7-1.1-1.4-1.6-2.2c-1.6-2.2-3.2-4.4-4.7-6.6c-6.6-9.8-12.2-20.2-16.8-31.1c1,2.4,2,4.8,3,7.2
					c-4.3-10.2-7.6-20.8-10-31.6c-9.6,12.7-19.3,25.3-28.9,38c11.8,0,23.6,0,35.5,0c28.4,0,56.8,0,85.1,0c34.2,0,68.3,0,102.5,0
					c29.7,0,59.4,0,89.1,0c14.4,0,28.9,0.3,43.4,0c0.2,0,0.4,0,0.6,0c15.7,0,30.7-13.8,30-30c-0.7-16.3-13.2-30-30-30
					c-11.8,0-23.6,0-35.5,0c-28.4,0-56.8,0-85.1,0c-34.2,0-68.3,0-102.5,0c-29.7,0-59.4,0-89.1,0c-14.4,0-28.9-0.3-43.4,0
					c-0.2,0-0.4,0-0.6,0c-20.3,0-33.1,19.1-28.9,38c16.3,73.4,72.7,133.4,144.1,156c73.1,23.2,155.3,2.8,210.3-50.1
					c29.5-28.4,50.8-66,59.6-105.9c3.4-15.3-4.6-33.2-21-36.9C939,436.2,920.9,444.2,917.3,460.6z"/>
			</g>
		</g>
		<g>
			<g>
				<path class="st0" d="M129.3,476.6c3.6-12.2,7.1-24.3,10.7-36.5c8.6-29.2,17.1-58.4,25.7-87.6c10.3-35.3,20.7-70.7,31-106
					c9-30.6,17.9-61.1,26.9-91.7c4.4-14.9,9.2-29.7,13.1-44.7c0.1-0.2,0.1-0.4,0.2-0.6c-19.3,0-38.6,0-57.9,0
					c3.6,12.2,7.1,24.3,10.7,36.5c8.6,29.2,17.1,58.4,25.7,87.6c10.4,35.3,20.7,70.7,31.1,106c9,30.6,17.9,61.1,26.9,91.7
					c4.4,14.9,8.4,29.9,13.1,44.7c0.1,0.2,0.1,0.4,0.2,0.6c4.4,15,21.3,26,36.9,21c15.3-4.9,25.7-20.8,21-36.9
					c-3.6-12.2-7.1-24.3-10.7-36.5c-8.6-29.2-17.1-58.4-25.7-87.6c-10.4-35.3-20.7-70.7-31.1-106c-9-30.6-17.9-61.1-26.9-91.7
					c-4.4-14.9-8.3-29.9-13.1-44.7c-0.1-0.2-0.1-0.4-0.2-0.6c-3.6-12.2-15.7-22.6-28.9-22c-13.4,0.6-25.1,8.9-28.9,22
					c-3.6,12.2-7.1,24.3-10.7,36.5c-8.6,29.2-17.1,58.4-25.7,87.6c-10.3,35.3-20.7,70.7-31,106c-9,30.6-17.9,61.1-26.9,91.7
					c-4.4,14.9-9.1,29.7-13.1,44.7c-0.1,0.2-0.1,0.4-0.2,0.6c-4.4,15.1,5.3,33.3,21,36.9C108.4,501.2,124.5,492.7,129.3,476.6
					L129.3,476.6z"/>
			</g>
		</g>
		<g>
			<g>
				<path class="st0" d="M689.6,476.6c3.6-12.2,7.1-24.3,10.7-36.5c8.6-29.2,17.1-58.4,25.7-87.6c10.3-35.3,20.7-70.7,31-106
					c9-30.6,17.9-61.1,26.9-91.7c4.4-14.9,9.2-29.7,13.1-44.7c0.1-0.2,0.1-0.4,0.2-0.6c-19.3,0-38.6,0-57.9,0
					c3.6,12.2,7.1,24.3,10.7,36.5c8.6,29.2,17.1,58.4,25.7,87.6c10.3,35.3,20.7,70.7,31,106c9,30.6,17.9,61.1,26.9,91.7
					c4.4,14.9,8.4,29.9,13.1,44.7c0.1,0.2,0.1,0.4,0.2,0.6c4.4,15,21.3,26,36.9,21c15.3-4.9,25.7-20.8,21-36.9
					c-3.6-12.2-7.1-24.3-10.7-36.5c-8.6-29.2-17.1-58.4-25.7-87.6c-10.3-35.3-20.7-70.7-31-106c-9-30.6-17.9-61.1-26.9-91.7
					c-4.4-14.9-8.3-29.9-13.1-44.7c-0.1-0.2-0.1-0.4-0.2-0.6c-3.6-12.2-15.7-22.6-28.9-22c-13.4,0.6-25.1,8.9-28.9,22
					c-3.6,12.2-7.1,24.3-10.7,36.5c-8.6,29.2-17.1,58.4-25.7,87.6c-10.3,35.3-20.7,70.7-31,106c-9,30.6-17.9,61.1-26.9,91.7
					c-4.4,14.9-9.1,29.7-13.1,44.7c-0.1,0.2-0.1,0.4-0.2,0.6c-4.4,15.1,5.3,33.3,21,36.9C668.7,501.2,684.9,492.7,689.6,476.6
					L689.6,476.6z"/>
			</g>
		</g>
	</g>
	<g>
		<g>
			<path class="st0" d="M481.6,101.5c0,1-0.1,1.9-0.2,2.9c0.4-2.7,0.7-5.3,1.1-8c-0.4,2.4-1,4.6-1.9,6.9c1-2.4,2-4.8,3-7.2
				c-0.3,0.6-1.9,2.9-2,3.5c0.1-0.8,5.2-6.4,1.7-2.5c-2.3,2.6-2.9-0.1,2.5-1.8c-1.2,0.4-2.4,1.4-3.5,1.9c2.4-1,4.8-2,7.2-3
				c-2.2,0.9-4.3,1.4-6.6,1.8c2.7-0.4,5.3-0.7,8-1.1c-1.9,0.2-3.7,0.2-5.6,0c2.7,0.4,5.3,0.7,8,1.1c-2.3-0.3-4.4-0.9-6.6-1.8
				c2.4,1,4.8,2,7.2,3c-0.5-0.2-3-1.9-3.5-1.9c0.9,0,6.1,5.4,2.5,1.8c-2.5-2.5-0.1-2.4,1.7,2.5c-0.4-1.2-1.4-2.4-2-3.5
				c1,2.4,2,4.8,3,7.2c-0.9-2.2-1.6-4.5-1.9-6.9c0.4,2.7,0.7,5.3,1.1,8c-0.2-2.1-0.2-4,0-6.1c-0.4,2.7-0.7,5.3-1.1,8
				c0.3-2,0.8-3.8,1.5-5.7c-1,2.4-2,4.8-3,7.2c0.1-0.3,1.8-3.8,1.9-3.7c-0.4-0.3-4.7,6.8-1.4,2c1.1-1.1,0.7-0.8-1.3,0.9
				c-2.3,1.7-2.5,1.8-0.6,0.5c1.4-0.7,2.6-1.4,4.1-2c-2.4,1-4.8,2-7.2,3c1.7-0.6,3.2-1,5-1.3c-2.7,0.4-5.3,0.7-8,1.1
				c2.5-0.3,4.8-0.3,7.2,0c-2.7-0.4-5.3-0.7-8-1.1c1.7,0.3,3.3,0.8,5,1.4c-2.4-1-4.8-2-7.2-3c0.1,0.1,4.1,2,4,2
				c0.3-0.3-6.9-4.8-2-1.4c1,1.1,0.8,0.7-0.9-1.4c-1.7-2.3-1.9-2.5-0.6-0.6c0.6,1.2,1.3,2.4,1.9,3.7c-1-2.4-2-4.8-3-7.2
				c0.7,1.9,1.2,3.7,1.5,5.7c-0.4-2.7-0.7-5.3-1.1-8C481.5,99.4,481.6,100.4,481.6,101.5c0.5,15.7,13.4,30.7,30,30
				c15.8-0.7,30.6-13.2,30-30c-0.5-14.3-5.6-28.4-16.2-38.4c-10.9-10.3-25.9-16.3-40.9-15c-14.1,1.3-27.7,7.2-36.8,18.3
				c-10.9,13.4-15,28.9-12,45.9c4.4,25,28.7,43.6,53.8,42.7c29.2-1,51.3-24.8,52.2-53.6c0.5-15.7-14.1-30.7-30-30
				C494.9,72.3,482.1,84.7,481.6,101.5z"/>
		</g>
	</g>
	<g>
		<g>
			<path class="st0" d="M518,76.6c0-15.5,0-31.1,0-46.6c0-15.7-13.8-30.7-30-30c-16.3,0.7-30,13.2-30,30c0,15.5,0,31.1,0,46.6
				c0,15.7,13.8,30.7,30,30C504.3,105.9,518,93.4,518,76.6L518,76.6z"/>
		</g>
	</g>
</g>
</svg>
